Exodus/Endure: The African American Population of North Carolina after Reconstruction
…
Figure 1: African American settlement in North Carolina, 1870. 
 Using 1870 Census data, this static county map illustrates where African Americans in North Carolina lived in the years post-Emancipation.

While full redemption or home rule of North Carolina was not fully secure until the re-election of Zebulon B. Vance as governor in 1876, Conservatives had worked to consolidate their power over local and state government after gaining control of the North Carolina General Assembly in 1870.8 They campaigned against the states 1868 constitution, which included a Declaration of Rights which affirmed the equality of all men, the holding of free elections, and the right to a public education.9 As the editor of The North State wrote, the Democrats, finding that they could not deprive the colored people the right to vote by violencedetermined to accomplish this object, so dear to their hearts, by law.10

# A tibble: 47 x 12
   gisjoin  year state_name statea areaname totblkpop ncnatives
   <chr>   <dbl> <chr>       <dbl> <chr>        <dbl>     <dbl>
 1 G010     1870 Alabama        10 Alabama     475214     16034
 2 G045     1870 Arizona        45 Arizona~        24         2
 3 G050     1870 Arkansas       50 Arkansas    122126      5228
 4 G060     1870 California     60 Califor~      3835        95
 5 G085     1870 Colorado       85 Colorad~       450        12
 6 G090     1870 Connectic~     90 Connect~      9565       295
 7 G095     1870 Dakota         95 Dakota ~        92         5
 8 G100     1870 Delaware      100 Delaware     22778        20
 9 G110     1870 District ~    110 Distric~     43325       275
10 G120     1870 Florida       120 Florida      91384      3809
# ... with 37 more rows, and 5 more variables: ncperblkpop <dbl>,
#   ncmigper <dbl>, statenativeper <dbl>, othernativeper <dbl>,
#   `(totncblack_percentage = ncmigper * 100)` <dbl>
…
# A tibble: 47 x 12
   gisjoin  year state_name statea areaname totblkpop ncnatives
   <chr>   <dbl> <chr>       <dbl> <chr>        <dbl>     <dbl>
 1 G010     1880 Alabama        10 Alabama     600107     12372
 2 G045     1880 Arizona        45 Arizona~      3582         2
 3 G050     1880 Arkansas       50 Arkansas    210819      5897
 4 G060     1880 California     60 Califor~     22291        92
 5 G080     1880 Colorado       80 Colorado      2559        43
 6 G090     1880 Connectic~     90 Connect~     11648       371
 7 G095     1880 Dakota         95 Dakota ~      1612         2
 8 G100     1880 Delaware      100 Delaware     26420        15
 9 G110     1880 District ~    110 Distric~     59476       459
10 G120     1880 Florida       120 Florida     124682      3505
# ... with 37 more rows, and 5 more variables: ncperblkpop <dbl>,
#   ncmigper <dbl>, statenativeper <dbl>, othernativeper <dbl>,
#   `(totncblack_percentage = ncmigper * 100)` <dbl>
…
